UART_Project.sim/sim_1/behav/xsim/uart_waveform.vcd
$date
   Wed Nov 26 01:09:51 2025
$end
$version
  2018.2
$end
$timescale
  1ps
$end
$scope module uart_tb $end
$var reg 1 ! clk $end
$var reg 1 " reset $end
$var reg 1 # tx_start $end
$var reg 8 $ tx_data_in [7:0] $end
$var wire 1 % tx_serial $end
$var wire 1 & tx_busy $end
$var wire 8 ' rx_data_out [7:0] $end
$var wire 1 ( rx_data_ready $end
$var wire 1 ) rx_framing_error $end
$var integer 32 * test_count $end
$var integer 32 + pass_count $end
$var integer 32 , fail_count $end
$var reg 8 - expected_data [7:0] $end
$var parameter 32 . CLK_FREQ [31:0] $end
$var parameter 32 / BAUD_RATE [31:0] $end
$var parameter 32 0 DATA_WIDTH [31:0] $end
$var parameter 32 1 CLK_PERIOD [31:0] $end
$scope module dut $end
$var wire 1 2 clk $end
$var wire 1 3 reset $end
$var wire 1 4 tx_start $end
$var wire 8 5 tx_data_in [7:0] $end
$var wire 1 % tx_serial $end
$var wire 1 & tx_busy $end
$var wire 1 % rx_serial $end
$var wire 8 ' rx_data_out [7:0] $end
$var wire 1 ( rx_data_ready $end
$var wire 1 ) rx_framing_error $end
$var wire 1 6 baud_tick $end
$var parameter 32 7 CLK_FREQ [31:0] $end
$var parameter 32 8 BAUD_RATE [31:0] $end
$var parameter 32 9 DATA_WIDTH [31:0] $end
$scope module baud_gen $end
$var wire 1 2 clk $end
$var wire 1 3 reset $end
$var reg 1 : baud_tick $end
$var reg 2 ; counter [-1:0] $end
$var parameter 32 < CLK_FREQ [31:0] $end
$var parameter 32 = BAUD_RATE [31:0] $end
$var parameter 0 > DIVISOR $end
$var parameter 0 ? COUNTER_WIDTH $end
$upscope $end
$scope module transmitter $end
$var wire 1 2 clk $end
$var wire 1 3 reset $end
$var wire 1 6 baud_tick $end
$var wire 1 4 start $end
$var wire 8 5 data_in [7:0] $end
$var reg 1 @ tx_serial $end
$var reg 1 A busy $end
$var reg 2 B state [1:0] $end
$var reg 2 C next_state [1:0] $end
$var reg 8 D data_reg [7:0] $end
$var reg 3 E bit_counter [2:0] $end
$var parameter 32 F DATA_WIDTH [31:0] $end
$var parameter 2 G IDLE [1:0] $end
$var parameter 2 H START [1:0] $end
$var parameter 2 I DATA [1:0] $end
$var parameter 2 J STOP [1:0] $end
$upscope $end
$scope module receiver $end
$var wire 1 2 clk $end
$var wire 1 3 reset $end
$var wire 1 6 baud_tick $end
$var wire 1 % rx_serial $end
$var reg 8 K data_out [7:0] $end
$var reg 1 L data_ready $end
$var reg 1 M framing_error $end
$var reg 2 N state [1:0] $end
$var reg 2 O next_state [1:0] $end
$var reg 8 P data_reg [7:0] $end
$var reg 3 Q bit_counter [2:0] $end
$var reg 4 R sample_counter [3:0] $end
$var reg 1 S rx_sync1 $end
$var reg 1 T rx_sync2 $end
$var parameter 32 U DATA_WIDTH [31:0] $end
$var parameter 2 V IDLE [1:0] $end
$var parameter 2 W START_DETECT [1:0] $end
$var parameter 2 X DATA_RECEIVE [1:0] $end
$var parameter 2 Y STOP_CHECK [1:0] $end
$upscope $end
$upscope $end
$scope task transmit_byte $end
$var reg 8 Z data [7:0] $end
$upscope $end
$upscope $end
$enddefinitions $end
#0
$dumpvars
0!
1"
0#
b0 $
x%
x&
bx '
x(
x)
b0 *
b0 +
b0 ,
bx -
b11110100001001000000 .
b11110100001001000000 /
b1000 0
b1111101000 1
02
13
04
b0 5
x6
b11110100001001000000 7
b11110100001001000000 8
b1000 9
x:
bx ;
b11110100001001000000 <
b11110100001001000000 =
b1 >
b0 ?
x@
xA
bx B
b0 C
bx D
bx E
b1000 F
b0 G
b1 H
b10 I
b11 J
bx K
xL
xM
bx N
bx O
bx P
bx Q
bx R
xS
xT
b1000 U
b0 V
b1 W
b10 X
b11 Y
bx Z
$end
#500000
1!
1%
0&
b0 '
0(
0)
12
06
0:
b0 ;
1@
0A
b0 B
b0 D
b0 E
b0 K
0L
0M
b0 N
b0 O
b0 P
b0 Q
b0 R
1S
1T
#1000000
0!
02
#1500000
1!
12
#2000000
0!
02
#2500000
1!
12
#3000000
0!
02
#3500000
1!
12
#4000000
0!
02
#4500000
1!
12
#5000000
0!
02
#5500000
1!
12
#6000000
0!
02
#6500000
1!
12
#7000000
0!
02
#7500000
1!
12
#8000000
0!
02
#8500000
1!
12
#9000000
0!
02
#9500000
1!
12
#10000000
0!
0"
02
03
#10500000
1!
12
16
1:
#11000000
0!
02
#11500000
1!
12
#12000000
0!
02
#12500000
1!
12
#13000000
0!
02
#13500000
1!
12
#14000000
0!
02
#14500000
1!
12
#15000000
0!
b1 *
b10100101 -
02
b10100101 Z
#15500000
1!
1#
b10100101 $
1&
12
14
b10100101 5
1A
b1 C
b10100101 D
#16000000
0!
02
#16500000
1!
0#
0&
12
04
0A
b1 B
b10 C
#17000000
0!
02
#17500000
1!
0%
1&
12
0@
1A
b10 B
#18000000
0!
02
#18500000
1!
1%
12
1@
b1010010 D
b1 E
0S
#19000000
0!
02
#19500000
1!
0%
12
0@
b101001 D
b10 E
b1 O
1S
0T
#20000000
0!
02
#20500000
1!
1%
12
1@
b10100 D
b11 E
b1 N
0S
1T
#21000000
0!
02
#21500000
1!
0%
12
0@
b1010 D
b100 E
b1 R
1S
0T
#22000000
0!
02
#22500000
1!
12
b101 D
b101 E
b10 R
0S
1T
#23000000
0!
02
#23500000
1!
1%
12
1@
b10 D
b110 E
b11 R
0T
#24000000
0!
02
#24500000
1!
0%
12
0@
b11 C
b1 D
b111 E
b100 R
1S
#25000000
0!
02
#25500000
1!
1%
12
1@
b11 B
b0 C
b0 D
b0 E
b101 R
0S
1T
#26000000
0!
02
#26500000
1!
12
b0 B
b110 R
1S
0T
#27000000
0!
02
#27500000
1!
0&
12
0A
b10 O
b111 R
1T
#28000000
0!
02
#28500000
1!
12
b10 N
b10 O
b0 R
#29000000
0!
02
#29500000
1!
12
b10000000 P
b1 Q
#30000000
0!
02
#30500000
1!
12
b11000000 P
b10 Q
#31000000
0!
02
#31500000
1!
12
b11100000 P
b11 Q
#32000000
0!
02
#32500000
1!
12
b11110000 P
b100 Q
#33000000
0!
02
#33500000
1!
12
b11111000 P
b101 Q
#34000000
0!
02
#34500000
1!
12
b11111100 P
b110 Q
#35000000
0!
02
#35500000
1!
12
b11 O
b11111110 P
b111 Q
#36000000
0!
02
#36500000
1!
12
b11 N
b0 O
b11111111 P
b0 Q
#37000000
0!
02
#37500000
1!
b11111111 '
1(
12
b11111111 K
1L
b0 N
#38000000
0!
02
#38500000
1!
0(
b1 ,
12
0L
